<?xml version="1.0" encoding="UTF-8" standalone="no"?>
<!-- Created with Inkscape (http://www.inkscape.org/) -->

<svg
   xmlns:a="http://ns.adobe.com/AdobeSVGViewerExtensions/3.0/"
   xmlns:dc="http://purl.org/dc/elements/1.1/"
   xmlns:cc="http://creativecommons.org/ns#"
   xmlns:rdf="http://www.w3.org/1999/02/22-rdf-syntax-ns#"
   xmlns:svg="http://www.w3.org/2000/svg"
   xmlns="http://www.w3.org/2000/svg"
   xmlns:xlink="http://www.w3.org/1999/xlink"
   version="1.0"
   width="500"
   height="500"
   viewBox="0 0 1000 1000"
   id="page"
   xml:space="preserve"><metadata
     id="metadata13"><rdf:RDF><cc:Work
         rdf:about=""><dc:format>image/svg+xml</dc:format><dc:type
           rdf:resource="http://purl.org/dc/dcmitype/StillImage" /><dc:title></dc:title></cc:Work></rdf:RDF></metadata><defs
     id="defs38"><linearGradient
       x1="27.4023"
       y1="304.52881"
       x2="27.4023"
       y2="412.12839"
       id="XMLID_1_"
       gradientUnits="userSpaceOnUse"
       gradientTransform="matrix(0.7,0,0,0.7,210.9908,-16.65302)">
			<stop
   id="stop18"
   style="stop-color:#ed4f1a;stop-opacity:1"
   offset="0" />
			<stop
   id="stop20"
   style="stop-color:#fdc253;stop-opacity:1"
   offset="1" />
			<a:midPointStop
   offset="0"
   style="stop-color:#999999" />
			<a:midPointStop
   offset="0.5"
   style="stop-color:#999999" />
			<a:midPointStop
   offset="1"
   style="stop-color:#555555" />
		</linearGradient><linearGradient
       x1="275.57867"
       y1="376.45007"
       x2="733.30231"
       y2="371.44196"
       id="linearGradient2179"
       xlink:href="#XMLID_1_"
       gradientUnits="userSpaceOnUse"
       gradientTransform="translate(-7.464517e-5,9.18141e-5)" /><linearGradient
       x1="275.57867"
       y1="376.45007"
       x2="733.30231"
       y2="371.44196"
       id="linearGradient2179-4"
       xlink:href="#XMLID_1_-8"
       gradientUnits="userSpaceOnUse"
       gradientTransform="translate(-358.65313,-641.22703)" /><linearGradient
       x1="27.4023"
       y1="304.52881"
       x2="27.4023"
       y2="412.12839"
       id="XMLID_1_-8"
       gradientUnits="userSpaceOnUse"
       gradientTransform="matrix(0.7,0,0,0.7,210.9908,-16.65302)"><stop
         id="stop18-4"
         style="stop-color:#ed4f1a;stop-opacity:1"
         offset="0" /><stop
         id="stop20-1"
         style="stop-color:#fdc253;stop-opacity:1"
         offset="1" /><a:midPointStop
         offset="0"
         style="stop-color:#999999" /><a:midPointStop
         offset="0.5"
         style="stop-color:#999999" /><a:midPointStop
         offset="1"
         style="stop-color:#555555" /></linearGradient><linearGradient
       x1="275.57867"
       y1="376.45007"
       x2="733.30231"
       y2="371.44196"
       id="linearGradient3036"
       xlink:href="#XMLID_1_-8"
       gradientUnits="userSpaceOnUse"
       gradientTransform="translate(-7e-5,9e-5)" /><filter
       x="-0.22187182"
       y="-0.26135409"
       width="1.4437437"
       height="1.5227082"
       color-interpolation-filters="sRGB"
       id="filter3808"><feGaussianBlur
         id="feGaussianBlur3810"
         stdDeviation="56.143977" /></filter></defs><path
     d="m 702.23477,771.48083 c -34.6641,0.1748 -76.74678,26.92406 -66.75,46.8125 4.46374,8.88056 31.69584,40.42848 62.375,75.375 -76.00602,30.75584 -138.43848,81.84164 -138.4375,150.81247 -0.002,67.2076 47.16384,120.5507 116.8125,154.3125 -27.45836,44.1197 -47.34234,79.4123 -41.6875,82.4375 15.62714,8.3604 22.9796,7.3603 37.6875,-1 4.33724,-2.4654 23.08928,-28.2638 47.375,-63.9375 44.51938,14.8612 94.84824,22.9401 146.375,23.125 30.39018,0.1091 60.58532,-2.8043 89.4375,-8.5 26.0552,29.6042 49.37783,52.6166 58.31253,55.25 35.8504,6.2703 88.2809,-23.9916 77.25,-45.9375 -3.0403,-6.0484 -16.6231,-22.7187 -34.625,-43.6875 65.7114,-33.989 110.3759,-86.6044 110.375,-152.0625 0,-69.73855 -61.8142,-121.17215 -137.3125,-151.81247 37.4071,-58.41096 69.5159,-111.68406 62.5,-115.4375 -7.8136,-4.18016 -13.5572,-6.01126 -19.1875,-5.75 -5.6304,0.26126 -11.1461,2.63234 -18.5,6.8125 -5.6528,3.21312 -35.7245,46.00214 -70.75003,98.75 -40.1937,-11.35512 -81.4647,-17.25 -117.5,-17.25 -19.75828,0 -41.24724,1.79128 -63.375,5.25 -36.8256,-45.7605 -77.45506,-89.07094 -89.9375,-92.75 -3.36098,-0.58784 -6.85156,-0.83058 -10.4375,-0.8125 z m 162.6875,138.9375 c 29.81826,0 59.06,6.75484 84.625,18.5 -30.90556,47.8812 -61.02626,96.31367 -78.25,126.99997 -8.76226,15.6111 -14.22562,26.6635 -14.75,30.6875 -1.4385,11.0387 18.56984,42.841 44.875,77.9375 -10.70174,1.6523 -21.6022,2.5 -32.5625,2.5 -34.64138,0 -70.34678,-8.5218 -100.4375,-24.25 19.85098,-30.55 39.77404,-62.0053 56.6875,-89.5625 25.30992,-41.2376 43.76072,-73.72101 44.75,-81.31247 1.18214,-9.07142 -12.07512,-32.25226 -31.4375,-59.6875 8.75754,-1.19608 17.63778,-1.8125 26.5,-1.8125 z m -118.625,38.3125 c 27.66194,31.4935 49.71088,57.21477 50.0625,60.81247 0.22782,2.3312 -10.57454,19.6494 -26.6875,44.5625 -11.3024,17.4753 -25.28902,38.8476 -39.875,61.1875 -22.31492,-21.5722 -36.50092,-49.2882 -36.5,-82.125 1.42726,-32.1004 22.26068,-62.11173 53,-84.43747 z m 243.3125,5.3125 c 25.35733,21.32036 41.89203,48.94197 43.18753,79.37497 1.3117,37.3461 -14.5177,68.028 -40.00003,90.5625 -27.18296,-30.8397 -51.57168,-58.6396 -59.75,-70 -1.82554,-2.5358 -2.86388,-4.2467 -2.9375,-5 -0.36134,-3.6972 27.12912,-45.4303 59.5,-94.93747 z"
     transform="matrix(1.2,0,0,1.2,-534.17781,-730.89131)"
     id="path2064-5"
     style="opacity:0.15;fill:#111111;fill-opacity:1;fill-rule:evenodd;stroke:#020202;stroke-width:12.5;stroke-linecap:square;stroke-linejoin:miter;stroke-miterlimit:4;stroke-opacity:1;stroke-dasharray:none;filter:url(#filter3808)" /><g
     id="g2990"
     style="opacity:0.75"><path
       d="m 231.78125,204.09375 -27.71875,0.4375 c -24.44866,37.80148 -73.43946,110.4184 -67.5625,113.5625 7.81357,4.18017 11.4898,3.68016 18.84375,-0.5 5.04066,-2.86524 48.86212,-68.5713 76.4375,-113.5 z m 53.96875,0.375 -30.875,0.96875 c -4.38113,7.80555 -7.11281,13.33175 -7.375,15.34375 -1.83849,14.10805 66.18397,96.12361 78.59375,99.78125 17.92524,3.13512 44.14046,-11.99581 38.625,-22.96875 -5.07371,-10.09407 -68.48525,-78.5625 -78.96875,-93.125 z"
       transform="scale(2,2)"
       id="path2064"
       style="fill:#020202;fill-opacity:1;fill-rule:evenodd;stroke:#020202;stroke-width:7.5;stroke-linecap:square;stroke-linejoin:miter;stroke-miterlimit:4;stroke-opacity:1;stroke-dasharray:none" /><path
       d="m 504.42371,214.76384 c -120.87582,0 -306.56609,65.74774 -306.56441,184.72037 -0.003,118.9775 147.69983,194.36749 306.56441,194.93747 153.06652,0.54918 300.75151,-75.96484 300.74985,-194.93747 0.002,-118.97264 -179.87567,-184.72037 -300.74985,-184.72037 z m -1.10555,50.60889 c 84.61192,0 165.00925,54.33552 167.93209,122.99646 2.9251,83.28084 -79.34983,133.64733 -163.96291,133.64734 -84.61309,0 -175.56988,-50.57421 -175.56756,-133.85848 2.92281,-65.73698 86.98532,-122.78531 171.59838,-122.78532 z"
       id="path2208"
       style="fill:url(#linearGradient2179);fill-opacity:1;fill-rule:nonzero;stroke:#020202;stroke-width:15;stroke-linecap:round;stroke-linejoin:round;stroke-miterlimit:3.13260007;stroke-dasharray:none" /><path
       d="m 170.34375,63.21875 c -17.33205,0.0874 -38.37339,13.462028 -33.375,23.40625 5.51545,10.972936 79.97788,90.92231 80.4375,95.625 0.11391,1.16557 -5.28727,9.82467 -13.34375,22.28125 l 27.71875,-0.4375 c 12.65496,-20.6188 21.88036,-36.86052 22.375,-40.65625 1.83849,-14.10806 -66.18397,-96.15486 -78.59375,-99.8125 -1.68049,-0.293918 -3.42578,-0.415291 -5.21875,-0.40625 z m 185.25,0 c -2.81518,0.13063 -5.57303,1.316168 -9.25,3.40625 -6.12777,3.483164 -69.57471,99.80547 -91.46875,138.8125 l 30.875,-0.96875 c -0.91277,-1.2679 -1.43194,-2.12335 -1.46875,-2.5 -0.45961,-4.70269 88.71982,-131.694835 80.90625,-135.875 -3.90679,-2.090082 -6.77857,-3.00563 -9.59375,-2.875 z"
       transform="scale(2,2)"
       id="path2118"
       style="fill:#020202;fill-opacity:1;fill-rule:evenodd;stroke:#020202;stroke-width:7.5;stroke-linecap:square;stroke-linejoin:miter;stroke-miterlimit:4;stroke-opacity:1;stroke-dasharray:none" /></g></svg>
